<svg xmlns="http://www.w3.org/2000/svg" viewBox="0 0 77.73 31.27">
  <title>oxide-logo</title>
  <g>
    <g>
      <path d="M9.24,6.13a8.93,8.93,0,0,1,6.58,2.73,9,9,0,0,1,2.71,6.6A8.94,8.94,0,0,1,15.82,22a8.92,8.92,0,0,1-6.58,2.72,8.87,8.87,0,0,1-6.56-2.7A9,9,0,0,1,0,15.46,9,9,0,0,1,2.7,8.85,8.89,8.89,0,0,1,9.24,6.13m0,4.61a4,4,0,0,0-3,1.35,4.7,4.7,0,0,0-1.26,3.33,4.72,4.72,0,0,0,1.25,3.31,4,4,0,0,0,3.06,1.35,4.06,4.06,0,0,0,3.08-1.37,4.7,4.7,0,0,0,1.26-3.29,4.72,4.72,0,0,0-1.26-3.31,4,4,0,0,0-3.08-1.37" style="fill: #fff"/>
      <path d="M59.32,0V24.55H54.71V22.47a6.71,6.71,0,0,1-2.38,1.68,8,8,0,0,1-3,.56A8.23,8.23,0,0,1,43.09,22a9.17,9.17,0,0,1-2.53-6.56,9.12,9.12,0,0,1,2.63-6.58,8.62,8.62,0,0,1,6.39-2.71,7.37,7.37,0,0,1,2.81.51,7,7,0,0,1,2.32,1.58V0ZM49.79,10.83a4.16,4.16,0,0,0-3.13,1.37,4.67,4.67,0,0,0-1.29,3.31,4.6,4.6,0,0,0,1.29,3.31,4.13,4.13,0,0,0,3.13,1.35,4.09,4.09,0,0,0,3.11-1.35,4.63,4.63,0,0,0,1.27-3.31A4.7,4.7,0,0,0,52.9,12.2a4.07,4.07,0,0,0-3.11-1.37" style="fill: #fff"/>
    </g>
    <rect x="39.59" y="27.26" width="0.64" height="3.8" style="fill: #fff"/>
    <g>
      <path d="M44.74,28.76v2.3H44.1V28.85a1.23,1.23,0,0,0-.2-.76.73.73,0,0,0-.59-.25.83.83,0,0,0-.66.31,1.3,1.3,0,0,0-.25.81v2.1h-.63v-3.8h.63v.57a1.44,1.44,0,0,1,.5-.45,1.49,1.49,0,0,1,.66-.15,1.08,1.08,0,0,1,.9.37,1.93,1.93,0,0,1,.28,1.16" style="fill: #fff"/>
      <path d="M46.92,26.62v.69h.93v.6h-.93v1.65a1.63,1.63,0,0,0,.12.77.51.51,0,0,0,.46.18h.38v.62h-.36a1.33,1.33,0,0,1-1-.27,2,2,0,0,1-.25-1.21V27.91h-.36v-.6h.36v-.4Z" style="fill: #fff"/>
      <path d="M54.92,27.25v.67h-.16a.75.75,0,0,0-.64.3,1.4,1.4,0,0,0-.22.86v2h-.64V27.29h.64v.58a1.39,1.39,0,0,1,.44-.46,1.08,1.08,0,0,1,.58-.16" style="fill: #fff"/>
      <path d="M58.69,28.38v2.67h-.58v-.38a1.3,1.3,0,0,1-.43.38,1.22,1.22,0,0,1-.57.13,1.2,1.2,0,0,1-.91-.37,1.36,1.36,0,0,1-.36-1,1.27,1.27,0,0,1,.37-.94,1.3,1.3,0,0,1,1-.37,1.19,1.19,0,0,1,.51.11,1.23,1.23,0,0,1,.39.33v-.57A.56.56,0,0,0,57.9,28a1,1,0,0,0-.61-.14l-.38,0a2.76,2.76,0,0,0-.4.06v-.6l.62-.05h.34a1.44,1.44,0,0,1,1,.24,1.19,1.19,0,0,1,.26.9m-1.42.67a.83.83,0,0,0-.58.23.75.75,0,0,0-.25.56.76.76,0,0,0,.24.57.78.78,0,0,0,.59.23.76.76,0,0,0,.58-.23.73.73,0,0,0,.23-.56.77.77,0,0,0-.23-.57.82.82,0,0,0-.58-.23" style="fill: #fff"/>
      <path d="M63.08,27.54l-.23.56a2.6,2.6,0,0,0-.53-.24,1.51,1.51,0,0,0-.48-.07,1.27,1.27,0,0,0-1,.4,1.37,1.37,0,0,0-.38,1,1.33,1.33,0,0,0,.38,1,1.28,1.28,0,0,0,1,.4,1.61,1.61,0,0,0,.53-.1,2.15,2.15,0,0,0,.53-.29l.2.58a2.43,2.43,0,0,1-.62.32,2.16,2.16,0,0,1-.65.11,1.92,1.92,0,0,1-1.41-.58,2,2,0,0,1-.57-1.42,1.93,1.93,0,0,1,.57-1.41,1.89,1.89,0,0,1,1.41-.58,2.3,2.3,0,0,1,.64.09,2.34,2.34,0,0,1,.61.26" style="fill: #fff"/>
      <path d="M64.94,26.62v.69h.93v.6h-.93v1.65a1.63,1.63,0,0,0,.12.77.51.51,0,0,0,.46.18h.38v.62h-.36a1.33,1.33,0,0,1-1-.27,2,2,0,0,1-.25-1.21V27.91h-.36v-.6h.36v-.4Z" style="fill: #fff"/>
    </g>
    <rect x="66.99" y="27.26" width="0.63" height="3.8" style="fill: #fff"/>
    <polygon points="69.4 27.26 70.59 30.03 71.75 27.27 72.43 27.27 70.55 31.27 68.7 27.26 69.4 27.26" style="fill: #fff"/>
    <g>
      <path d="M76.75,28.14,74,29.88a1.39,1.39,0,0,0,.46.5,1.22,1.22,0,0,0,.65.18,1.8,1.8,0,0,0,.62-.11,2,2,0,0,0,.56-.34l.29.48a2.75,2.75,0,0,1-.75.46,2,2,0,0,1-.73.13,1.76,1.76,0,0,1-1.35-.59,2,2,0,0,1-.55-1.42,1.93,1.93,0,0,1,.56-1.41,1.85,1.85,0,0,1,1.38-.57,1.75,1.75,0,0,1,.89.24,2.37,2.37,0,0,1,.75.71m-.83-.07a.93.93,0,0,0-.38-.25,1.34,1.34,0,0,0-.46-.08,1.27,1.27,0,0,0-1,.4,1.3,1.3,0,0,0-.39.95,1.37,1.37,0,0,0,0,.3v0Z" style="fill: #fff"/>
      <path d="M52.42,28.14l-2.79,1.74a1.41,1.41,0,0,0,.47.5,1.2,1.2,0,0,0,.65.18,1.8,1.8,0,0,0,.62-.11,2.21,2.21,0,0,0,.56-.34l.29.48a2.75,2.75,0,0,1-.75.46,2,2,0,0,1-.73.13,1.76,1.76,0,0,1-1.35-.59,2,2,0,0,1-.55-1.42,1.93,1.93,0,0,1,.56-1.41,1.84,1.84,0,0,1,1.37-.57,1.7,1.7,0,0,1,.89.24,2.4,2.4,0,0,1,.76.71m-.83-.07a1,1,0,0,0-.38-.25,1.34,1.34,0,0,0-.46-.08,1.27,1.27,0,0,0-1,.4,1.3,1.3,0,0,0-.39.95,1.37,1.37,0,0,0,0,.3v0Z" style="fill: #fff"/>
      <path d="M72.16,20a4.33,4.33,0,0,1-2.71.64,3.4,3.4,0,0,1-1.79-.44,4.94,4.94,0,0,1-.91-.56l11-7.39a9.16,9.16,0,0,0-8.28-6.12A8.58,8.58,0,0,0,63.1,8.8a8.88,8.88,0,0,0-2.59,6.49A9.47,9.47,0,0,0,63.07,22a8.19,8.19,0,0,0,6.24,2.74A9.56,9.56,0,0,0,73.06,24a13.08,13.08,0,0,0,3.62-2.63l-2-3.21A8.73,8.73,0,0,1,72.16,20m-6-8.65a4.23,4.23,0,0,1,3.11-1.26,4.08,4.08,0,0,1,1.36.22,4.15,4.15,0,0,1,1.21.67L65,15.64c0-.22-.07-.43-.09-.61a5.4,5.4,0,0,1,0-.56,4.15,4.15,0,0,1,1.27-3.08" style="fill: #fff"/>
    </g>
    <polygon points="38 31.08 28.2 15.48 33.91 6.27 28.29 6.27 25.39 10.95 22.5 6.27 16.87 6.27 22.58 15.48 16.97 24.54 22.58 24.54 25.39 20.01 32.38 31.08 38 31.08" style="fill: #fff"/>
    <polygon points="31.05 15.49 36.76 6.27 42.38 6.27 36.66 15.49 42.28 24.54 36.67 24.54 31.05 15.49" style="fill: #fff"/>
    <polygon points="38.11 4.09 40.64 0.01 46.26 0.01 43.73 4.09 38.11 4.09" style="fill: #fff"/>
  </g>
</svg>
